Notes on using R
…
the sample size n gets special treatment here because it applies to the entire dataset, not any specific variable (alternatively, we could use n=\(x) sum(is.na(x)) as above).

We could do this by z1 and z2:

d |> group_by(z1, z2) |> summarize(across(num_range("y", 1:3), 
                                   list(mean = \(x) mean(x, na.rm=TRUE), 
                                        sd = \(x) sd(x, na.rm=TRUE))), 
                                   n=n())

`summarise()` has grouped output by 'z1'. You can override using the `.groups`
argument.

# A tibble: 23 × 9
# Groups:   z1 [5]
      z1    z2 y1_mean  y1_sd y2_mean  y2_sd y3_mean  y3_sd     n
   <int> <int>   <dbl>  <dbl>   <dbl>  <dbl>   <dbl>  <dbl> <int>
 1     1     2 -0.209   2.67    0.952  0.917  -0.336  0.411     2
 2     1     3 -0.388  NA      -0.155 NA       0.896 NA         1
 3     1     4  0.691   1.57    0.162  0.953  -0.160  0.675     4
 4     1     5  0.641   0.288   0.193  0.726  -0.346  1.36      3
 5     2     1 -0.156   1.60   -0.165  1.57   -0.757  0.153     3
 6     2     2 -1.02   NA      -0.233 NA      -0.746 NA         1
 7     2     3  0.199   0.798   0.303  0.444  -0.106  1.84      4
 8     2     4 -0.995  NA       0.275 NA       0.723 NA         1
 9     2     5 -0.716  NA      -1.35  NA      -0.806 NA         1
10     3     1 -0.0245  0.201   0.212  1.00    0.160  0.651     2
# ℹ 13 more rows
…
